Grafici/Regressione/backup_files/tek0002CH1.csv

Model,MDO32
Firmware Version,1.6.0

Waveform Type,ANALOG
Point Format,Y
Horizontal Units,s
Horizontal Scale,1e-06
Horizontal Delay,2.86e-06
Sample Interval,1e-09
Record Length,10000
Gating,0.0% to 100.0%
Probe Attenuation,1
Vertical Units,V
Vertical Offset,0
Vertical Scale,0.5
Vertical Position,-3.04
,
,
,
Label,
TIME,CH1
-2.140e-06,-0.00585938
-2.139e-06,-0.013125
-2.138e-06,-0.009375
-2.137e-06,-0.00898438
-2.136e-06,-0.00984375
-2.135e-06,-0.0090625
-2.134e-06,-0.01125
-2.133e-06,-0.0129687
-2.132e-06,-0.00835937
-2.131e-06,-0.00882812
-2.130e-06,-0.00820313
-2.129e-06,-0.0107812
-2.128e-06,-0.00703125
-2.127e-06,-0.010625
-2.126e-06,-0.0107031
-2.125e-06,-0.0132812
-2.124e-06,-0.0113281
-2.123e-06,-0.0114063
-2.122e-06,-0.0096875
-2.121e-06,-0.0102344
-2.120e-06,-0.00953125
-2.119e-06,-0.01
-2.118e-06,-0.00726563
-2.117e-06,-0.0129687
-2.116e-06,-0.00976562
-2.115e-06,-0.0122656
-2.114e-06,-0.00671875
-2.113e-06,-0.011875
-2.112e-06,-0.00953125
-2.111e-06,-0.0130469
-2.110e-06,-0.0111719
-2.109e-06,-0.00882812
-2.108e-06,-0.0107031
-2.107e-06,-0.01125
-2.106e-06,-0.00929687
-2.105e-06,-0.0084375
-2.104e-06,-0.00695313
-2.103e-06,-0.0103125
-2.102e-06,-0.0117188
-2.101e-06,-0.0103906
-2.100e-06,-0.006875
-2.099e-06,-0.0103906
-2.098e-06,-0.0142969
-2.097e-06,-0.009375
-2.096e-06,-0.0114844
-2.095e-06,-0.01
-2.094e-06,-0.0078125
-2.093e-06,-0.0135156
-2.092e-06,-0.0144531
-2.091e-06,-0.00945313
-2.090e-06,-0.0122656
-2.089e-06,-0.00640625
-2.088e-06,-0.0107031
-2.087e-06,-0.0128125
-2.086e-06,-0.0075
-2.085e-06,-0.00984375
-2.084e-06,-0.00796875
-2.083e-06,-0.0100781
-2.082e-06,-0.00875
-2.081e-06,-0.0132812
-2.080e-06,-0.00609375
-2.079e-06,-0.01
-2.078e-06,-0.00742187
-2.077e-06,-0.00945313
-2.076e-06,-0.013125
-2.075e-06,-0.00945313
-2.074e-06,-0.00617187
-2.073e-06,-0.0101563
-2.072e-06,-0.00507813
-2.071e-06,-0.00914063
-2.070e-06,-0.00648438
-2.069e-06,-0.0110938
-2.068e-06,-0.00867188
-2.067e-06,-0.0145313
-2.066e-06,-0.00671875
-2.065e-06,-0.0117188
-2.064e-06,-0.0114063
-2.063e-06,-0.0134375
-2.062e-06,-0.008125
-2.061e-06,-0.01125
-2.060e-06,-0.00804688
-2.059e-06,-0.0128906
-2.058e-06,-0.00648438
-2.057e-06,-0.00710937
-2.056e-06,-0.008125
-2.055e-06,-0.00796875
-2.054e-06,-0.0102344
-2.053e-06,-0.0121875
-2.052e-06,-0.00515625
-2.051e-06,-0.0125
-2.050e-06,-0.011875
-2.049e-06,-0.0107031
-2.048e-06,-0.0065625
-2.047e-06,-0.0103906
-2.046e-06,-0.0104688
-2.045e-06,-0.0084375
-2.044e-06,-0.0046875
-2.043e-06,-0.00632813
-2.042e-06,-0.00671875
-2.041e-06,-0.0075
-2.040e-06,-0.00625
-2.039e-06,-0.0132031
-2.038e-06,-0.008125
-2.037e-06,-0.00859375
-2.036e-06,-0.0084375
-2.035e-06,-0.00882812
-2.034e-06,-0.00851563
-2.033e-06,-0.0103906
-2.032e-06,-0.00851563
-2.031e-06,-0.0144531
-2.030e-06,-0.00914063
-2.029e-06,-0.0107031
-2.028e-06,-0.00828125
-2.027e-06,-0.00976562
-2.026e-06,-0.0096875
-2.025e-06,-0.0078125
-2.024e-06,-0.00726563
-2.023e-06,-0.01125
-2.022e-06,-0.00914063
-2.021e-06,-0.0109375
-2.020e-06,-0.0114844
-2.019e-06,-0.00835937
-2.018e-06,-0.00984375
-2.017e-06,-0.0103906
-2.016e-06,-0.009375
-2.015e-06,-0.00976562
-2.014e-06,-0.0108594
-2.013e-06,-0.0134375
-2.012e-06,-0.0107031
-2.011e-06,-0.00835937
-2.010e-06,-0.0108594
-2.009e-06,-0.0121094
-2.008e-06,-0.00765625
-2.007e-06,-0.0111719
-2.006e-06,-0.00921875
-2.005e-06,-0.0113281
-2.004e-06,-0.00710937
-2.003e-06,-0.00796875
-2.002e-06,-0.00960937
-2.001e-06,-0.0132812
-2.000e-06,-0.00789062
-1.999e-06,-0.0119531
-1.998e-06,-0.00890625
-1.997e-06,-0.009375
-1.996e-06,-0.00976562
-1.995e-06,-0.00882812
-1.994e-06,-0.00734375
-1.993e-06,-0.0115625
-1.992e-06,-0.00945313
-1.991e-06,-0.00976562
-1.990e-06,-0.00710937
-1.989e-06,-0.0123438
-1.988e-06,-0.00867188
-1.987e-06,-0.0125
-1.986e-06,-0.0100781
-1.985e-06,-0.00992188
-1.984e-06,-0.00773438
-1.983e-06,-0.0132031
-1.982e-06,-0.0103906
-1.981e-06,-0.0110156
-1.980e-06,-0.0101563
-1.979e-06,-0.0121094
-1.978e-06,-0.00976562
-1.977e-06,-0.0126563
-1.976e-06,-0.00875
-1.975e-06,-0.00828125
-1.974e-06,-0.0110156
-1.973e-06,-0.00960937
-1.972e-06,-0.00867188
-1.971e-06,-0.0128906
-1.970e-06,-0.00890625
-1.969e-06,-0.0109375
-1.968e-06,-0.0111719
-1.967e-06,-0.00773438
-1.966e-06,-0.00539062
-1.965e-06,-0.0096875
-1.964e-06,-0.0102344
-1.963e-06,-0.015
-1.962e-06,-0.0078125
-1.961e-06,-0.0114844
-1.960e-06,-0.00523438
-1.959e-06,-0.0122656
-1.958e-06,-0.0090625
-1.957e-06,-0.00921875
-1.956e-06,-0.0116406
-1.955e-06,-0.00882812
-1.954e-06,-0.00882812
-1.953e-06,-0.0103125
-1.952e-06,-0.008125
-1.951e-06,-0.0108594
-1.950e-06,-0.00976562
-1.949e-06,-0.01375
-1.948e-06,-0.0101563
-1.947e-06,-0.0103906
-1.946e-06,-0.0116406
-1.945e-06,-0.0102344
-1.944e-06,-0.00875
-1.943e-06,-0.0126563
-1.942e-06,-0.00609375
-1.941e-06,-0.011875
-1.940e-06,-0.006875
-1.939e-06,-0.0065625
-1.938e-06,-0.0103125
-1.937e-06,-0.0104688
-1.936e-06,-0.0114844
-1.935e-06,-0.006875
-1.934e-06,-0.0107812
-1.933e-06,-0.00796875
-1.932e-06,-0.0121875
-1.931e-06,-0.0114844
-1.930e-06,-0.0134375
-1.929e-06,-0.0090625
-1.928e-06,-0.0121875
-1.927e-06,-0.00796875
-1.926e-06,-0.00984375
-1.925e-06,-0.0142969
-1.924e-06,-0.0104688
-1.923e-06,-0.0096875
-1.922e-06,-0.0114844
-1.921e-06,-0.00882812
-1.920e-06,-0.00789062
-1.919e-06,-0.00914063
-1.918e-06,-0.00757812
-1.917e-06,-0.00914063
-1.916e-06,-0.00492187
-1.915e-06,-0.0100781
-1.914e-06,-0.0078125
-1.913e-06,-0.0110156
-1.912e-06,-0.0110156
-1.911e-06,-0.00804688
-1.910e-06,-0.00445312
-1.909e-06,-0.00992188
-1.908e-06,-0.0109375
-1.907e-06,-0.0122656
-1.906e-06,-0.01
-1.905e-06,-0.0128125
-1.904e-06,-0.0078125
-1.903e-06,-0.0109375
-1.902e-06,-0.0107031
-1.901e-06,-0.00976562
-1.900e-06,-0.00914063
-1.899e-06,-0.0121875
-1.898e-06,-0.0109375
-1.897e-06,-0.0117188
-1.896e-06,-0.00789062
-1.895e-06,-0.0096875
-1.894e-06,-0.00671875
-1.893e-06,-0.0120312
-1.892e-06,-0.00953125
-1.891e-06,-0.00765625
-1.890e-06,-0.0100781
-1.889e-06,-0.00859375
-1.888e-06,-0.00921875
-1.887e-06,-0.00882812
-1.886e-06,-0.0127344
-1.885e-06,-0.00875
-1.884e-06,-0.0075
-1.883e-06,-0.0078125
-1.882e-06,-0.0090625
-1.881e-06,-0.0117188
-1.880e-06,-0.0134375
-1.879e-06,-0.00921875
-1.878e-06,-0.0108594
-1.877e-06,-0.00671875
-1.876e-06,-0.00898438
-1.875e-06,-0.0101563
-1.874e-06,-0.00578125
-1.873e-06,-0.0116406
-1.872e-06,-0.00757812
-1.871e-06,-0.00820313
-1.870e-06,-0.00757812
-1.869e-06,-0.00992188
-1.868e-06,-0.00867188
-1.867e-06,-0.00953125
-1.866e-06,-0.00921875
-1.865e-06,-0.00960937
-1.864e-06,-0.0116406
-1.863e-06,-0.00851563
-1.862e-06,-0.0111719
-1.861e-06,-0.0121875
-1.860e-06,-0.00890625
-1.859e-06,-0.0133594
-1.858e-06,-0.011875
-1.857e-06,-0.0135156
-1.856e-06,-0.00984375
-1.855e-06,-0.00953125
-1.854e-06,-0.00710937
-1.853e-06,-0.0128906
-1.852e-06,-0.0096875
-1.851e-06,-0.0113281
-1.850e-06,-0.0078125
-1.849e-06,-0.0075
-1.848e-06,-0.00796875
-1.847e-06,-0.0121875
-1.846e-06,-0.0075
-1.845e-06,-0.0110938
-1.844e-06,-0.00859375
-1.843e-06,-0.00671875
-1.842e-06,-0.0129687
-1.841e-06,-0.0125
-1.840e-06,-0.00960937
-1.839e-06,-0.0111719
-1.838e-06,-0.0108594
-1.837e-06,-0.0119531
-1.836e-06,-0.0040625
-1.835e-06,-0.0146875
-1.834e-06,-0.0103906
-1.833e-06,-0.0104688
-1.832e-06,-0.00804688
-1.831e-06,-0.0108594
-1.830e-06,-0.00851563
-1.829e-06,-0.0147656
-1.828e-06,-0.0111719
-1.827e-06,-0.00992188
-1.826e-06,-0.00789062
-1.825e-06,-0.00976562
-1.824e-06,-0.00828125
-1.823e-06,-0.00953125
-1.822e-06,-0.00929687
-1.821e-06,-0.0096875
-1.820e-06,-0.00515625
-1.819e-06,-0.00789062
-1.818e-06,-0.0110156
-1.817e-06,-0.00828125
-1.816e-06,-0.011875
-1.815e-06,-0.0105469
-1.814e-06,-0.009375
-1.813e-06,-0.00773438
-1.812e-06,-0.006875
-1.811e-06,-0.0121875
-1.810e-06,-0.00882812
-1.809e-06,-0.0148438
-1.808e-06,-0.00601563
-1.807e-06,-0.0101563
-1.806e-06,-0.0109375
-1.805e-06,-0.01125
-1.804e-06,-0.00710937
-1.803e-06,-0.00992188
-1.802e-06,-0.01
-1.801e-06,-0.0142187
-1.800e-06,-0.0100781
-1.799e-06,-0.0123438
-1.798e-06,-0.00992188
-1.797e-06,-0.00703125
-1.796e-06,-0.009375
-1.795e-06,-0.0116406
-1.794e-06,-0.00726563
-1.793e-06,-0.0114063
-1.792e-06,-0.00960937
-1.791e-06,-0.0117969
-1.790e-06,-0.0117969
-1.789e-06,-0.0103125
-1.788e-06,-0.00960937
-1.787e-06,-0.00867188
-1.786e-06,-0.00992188
-1.785e-06,-0.00773438
-1.784e-06,-0.0078125
-1.783e-06,-0.00828125
-1.782e-06,-0.0103125
-1.781e-06,-0.0102344
-1.780e-06,-0.00867188
-1.779e-06,-0.0139063
-1.778e-06,-0.009375
-1.777e-06,-0.0125
-1.776e-06,-0.00859375
-1.775e-06,-0.0128906
-1.774e-06,-0.00914063
-1.773e-06,-0.0100781
-1.772e-06,-0.0102344
-1.771e-06,-0.01125
-1.770e-06,-0.0105469
-1.769e-06,-0.0123438
-1.768e-06,-0.0151562
-1.767e-06,-0.01
-1.766e-06,-0.0117188
-1.765e-06,-0.01125
-1.764e-06,-0.0110156
-1.763e-06,-0.0121875
-1.762e-06,-0.00898438
-1.761e-06,-0.013125
-1.760e-06,-0.0096875
-1.759e-06,-0.00804688
-1.758e-06,-0.00796875
-1.757e-06,-0.0115625
-1.756e-06,-0.00828125
-1.755e-06,-0.00953125
-1.754e-06,-0.00648438
-1.753e-06,-0.0111719
-1.752e-06,-0.00929687
-1.751e-06,-0.00539062
-1.750e-06,-0.01
-1.749e-06,-0.0141406
-1.748e-06,-0.00609375
-1.747e-06,-0.0139844
-1.746e-06,-0.00632813
-1.745e-06,-0.00835937
-1.744e-06,-0.00992188
-1.743e-06,-0.0110156
-1.742e-06,-0.0102344
-1.741e-06,-0.0124219
-1.740e-06,-0.006875
-1.739e-06,-0.0117188
-1.738e-06,-0.009375
-1.737e-06,-0.0084375
-1.736e-06,-0.0111719
-1.735e-06,-0.0125781
-1.734e-06,-0.00679688
-1.733e-06,-0.013125
-1.732e-06,-0.009375
-1.731e-06,-0.00757812
-1.730e-06,-0.00992188
-1.729e-06,-0.00710937
-1.728e-06,-0.0101563
-1.727e-06,-0.00992188
-1.726e-06,-0.00296875
-1.725e-06,-0.015
-1.724e-06,-0.00789062
-1.723e-06,-0.0113281
-1.722e-06,-0.0090625
-1.721e-06,-0.0129687
-1.720e-06,-0.0120312
-1.719e-06,-0.0110156
-1.718e-06,-0.00742187
-1.717e-06,-0.0100781
-1.716e-06,-0.0122656
-1.715e-06,-0.0110156
-1.714e-06,-0.00835937
-1.713e-06,-0.0103906
-1.712e-06,-0.00929687
-1.711e-06,-0.00742187
-1.710e-06,-0.00703125
-1.709e-06,-0.0127344
-1.708e-06,-0.008125
-1.707e-06,-0.005625
-1.706e-06,-0.00929687
-1.705e-06,-0.0100781
-1.704e-06,-0.01125
-1.703e-06,-0.0108594
-1.702e-06,-0.00914063
-1.701e-06,-0.00867188
-1.700e-06,-0.00929687
-1.699e-06,-0.0121875
-1.698e-06,-0.0110938
-1.697e-06,-0.0108594
-1.696e-06,-0.0111719
-1.695e-06,-0.0132812
-1.694e-06,-0.0120312
-1.693e-06,-0.0109375
-1.692e-06,-0.00859375
-1.691e-06,-0.00929687
-1.690e-06,-0.0114063
-1.689e-06,-0.0128906
-1.688e-06,-0.0117969
-1.687e-06,-0.0111719
-1.686e-06,-0.00859375
-1.685e-06,-0.0110938
-1.684e-06,-0.0103906
-1.683e-06,-0.0146875
-1.682e-06,-0.00875
-1.681e-06,-0.0124219
-1.680e-06,-0.0113281
-1.679e-06,-0.0109375
-1.678e-06,-0.00851563
-1.677e-06,-0.00921875
-1.676e-06,-0.00851563
-1.675e-06,-0.0132031
-1.674e-06,-0.00773438
-1.673e-06,-0.0108594
-1.672e-06,-0.00734375
-1.671e-06,-0.0107812
-1.670e-06,-0.00976562
-1.669e-06,-0.0101563
-1.668e-06,-0.00914063
-1.667e-06,-0.0107812
-1.666e-06,-0.0117188
-1.665e-06,-0.0110938
-1.664e-06,-0.00851563
-1.663e-06,-0.0140625
-1.662e-06,-0.00445312
-1.661e-06,-0.00914063
-1.660e-06,-0.00570312
-1.659e-06,-0.0142187
-1.658e-06,-0.0100781
-1.657e-06,-0.0084375
-1.656e-06,-0.0075
-1.655e-06,-0.0130469
-1.654e-06,-0.00710937
-1.653e-06,-0.010625
-1.652e-06,-0.0107812
-1.651e-06,-0.00898438
-1.650e-06,-0.00695313
-1.649e-06,-0.00671875
-1.648e-06,-0.009375
-1.647e-06,-0.00882812
-1.646e-06,-0.00890625
-1.645e-06,-0.0111719
-1.644e-06,-0.0084375
-1.643e-06,-0.00625
-1.642e-06,-0.0125781
-1.641e-06,-0.00960937
-1.640e-06,-0.0110938
-1.639e-06,-0.0096875
-1.638e-06,-0.0110156
-1.637e-06,-0.00945313
-1.636e-06,-0.00984375
-1.635e-06,-0.0108594
-1.634e-06,-0.0133594
-1.633e-06,-0.00992188
-1.632e-06,-0.00617187
-1.631e-06,-0.00898438
-1.630e-06,-0.00554688
-1.629e-06,-0.0107031
-1.628e-06,-0.0046875
-1.627e-06,-0.00921875
-1.626e-06,-0.0135156
-1.625e-06,-0.0130469
-1.624e-06,-0.0105469
-1.623e-06,-0.01375
-1.622e-06,-0.0110156
-1.621e-06,-0.00882812
-1.620e-06,-0.00796875
-1.619e-06,-0.0104688
-1.618e-06,-0.00953125
-1.617e-06,-0.0115625
-1.616e-06,-0.0109375
-1.615e-06,-0.00632813
-1.614e-06,-0.00867188
-1.613e-06,-0.0130469
-1.612e-06,-0.00867188
-1.611e-06,-0.0129687
-1.610e-06,-0.00804688
-1.609e-06,-0.0108594
-1.608e-06,-0.00898438
-1.607e-06,-0.011875
-1.606e-06,-0.00804688
-1.605e-06,-0.0102344
-1.604e-06,-0.0116406
-1.603e-06,-0.00984375
-1.602e-06,-0.00609375
-1.601e-06,-0.00617187
-1.600e-06,-0.01125
-1.599e-06,-0.011875
-1.598e-06,-0.00789062
-1.597e-06,-0.0107812
-1.596e-06,-0.00585938
-1.595e-06,-0.0103125
-1.594e-06,-0.0102344
-1.593e-06,-0.0122656
-1.592e-06,-0.0103906
-1.591e-06,-0.0114063
-1.590e-06,-0.006875
-1.589e-06,-0.00976562
-1.588e-06,-0.00984375
-1.587e-06,-0.014375
-1.586e-06,-0.00929687
-1.585e-06,-0.00929687
-1.584e-06,-0.0102344
-1.583e-06,-0.008125
-1.582e-06,-0.00921875
-1.581e-06,-0.0125
-1.580e-06,-0.0121875
-1.579e-06,-0.0116406
-1.578e-06,-0.00859375
-1.577e-06,-0.0119531
-1.576e-06,-0.0114063
-1.575e-06,-0.00953125
-1.574e-06,-0.00664062
-1.573e-06,-0.00757812
-1.572e-06,-0.0117969
-1.571e-06,-0.0116406
-1.570e-06,-0.0142969
-1.569e-06,-0.0102344
-1.568e-06,-0.00851563
-1.567e-06,-0.0146094
-1.566e-06,-0.00492187
-1.565e-06,-0.0158594
-1.564e-06,-0.00890625
-1.563e-06,-0.0139844
-1.562e-06,-0.0142969
-1.561e-06,-0.0108594
-1.560e-06,-0.004375
-1.559e-06,-0.00757812
-1.558e-06,-0.0110156
-1.557e-06,-0.0105469
-1.556e-06,-0.013125
-1.555e-06,-0.0115625
-1.554e-06,-0.00765625
-1.553e-06,-0.0125
-1.552e-06,-0.00617187
-1.551e-06,-0.0122656
-1.550e-06,-0.00570312
-1.549e-06,-0.0100781
-1.548e-06,-0.00492187
-1.547e-06,-0.00851563
-1.546e-06,-0.00671875
-1.545e-06,-0.0103125
-1.544e-06,-0.0120312
-1.543e-06,-0.00757812
-1.542e-06,-0.00796875
-1.541e-06,-0.0096875
-1.540e-06,-0.0084375
-1.539e-06,-0.0114844
-1.538e-06,-0.00953125
-1.537e-06,-0.0125781
-1.536e-06,-0.00851563
-1.535e-06,-0.0101563
-1.534e-06,-0.0117969
-1.533e-06,-0.0102344
-1.532e-06,-0.00929687
-1.531e-06,-0.009375
-1.530e-06,-0.006875
-1.529e-06,-0.0129687
-1.528e-06,-0.00648438
-1.527e-06,-0.00679688
-1.526e-06,-0.00992188
-1.525e-06,-0.0111719
-1.524e-06,-0.0101563
-1.523e-06,-0.0108594
-1.522e-06,-0.00789062
-1.521e-06,-0.0110938
-1.520e-06,-0.0075
-1.519e-06,-0.0121094
-1.518e-06,-0.0090625
-1.517e-06,-0.01375
-1.516e-06,-0.0109375
-1.515e-06,-0.00726563
-1.514e-06,-0.0142969
-1.513e-06,-0.00820313
-1.512e-06,-0.00796875
-1.511e-06,-0.00789062
-1.510e-06,-0.00882812
-1.509e-06,-0.0109375
-1.508e-06,-0.0104688
-1.507e-06,-0.00976562
-1.506e-06,-0.00679688
-1.505e-06,-0.0110938
-1.504e-06,-0.00882812
-1.503e-06,-0.00664062
-1.502e-06,-0.00742187
-1.501e-06,-0.0157031
-1.500e-06,-0.00695313
-1.499e-06,-0.0141406
-1.498e-06,-0.008125
-1.497e-06,-0.014375
-1.496e-06,-0.00804688
-1.495e-06,-0.0096875
-1.494e-06,-0.00898438
-1.493e-06,-0.00960937
-1.492e-06,-0.00882812
-1.491e-06,-0.00851563
-1.490e-06,-0.00851563
-1.489e-06,-0.0129687
-1.488e-06,-0.01125
-1.487e-06,-0.0101563
-1.486e-06,-0.00632813
-1.485e-06,-0.00914063
-1.484e-06,-0.0116406
-1.483e-06,-0.00515625
-1.482e-06,-0.0132812
-1.481e-06,-0.011875
-1.480e-06,-0.008125
-1.479e-06,-0.0117969
-1.478e-06,-0.00734375
-1.477e-06,-0.0114063
-1.476e-06,-0.00882812
-1.475e-06,-0.0107031
-1.474e-06,-0.00726563
-1.473e-06,-0.0107031
-1.472e-06,-0.00882812
-1.471e-06,-0.00757812
-1.470e-06,-0.0105469
-1.469e-06,-0.0115625
-1.468e-06,-0.00601563
-1.467e-06,-0.00867188
-1.466e-06,-0.009375
-1.465e-06,-0.0102344
-1.464e-06,-0.00765625
-1.463e-06,-0.0142969
-1.462e-06,-0.00914063
-1.461e-06,-0.00671875
-1.460e-06,-0.011875
-1.459e-06,-0.0114063
-1.458e-06,-0.00976562
-1.457e-06,-0.0138281
-1.456e-06,-0.00789062
-1.455e-06,-0.0109375
-1.454e-06,-0.00773438
-1.453e-06,-0.0090625
-1.452e-06,-0.009375
-1.451e-06,-0.00742187
-1.450e-06,-0.00890625
-1.449e-06,-0.00953125
-1.448e-06,-0.00859375
-1.447e-06,-0.0103906
-1.446e-06,-0.00882812
-1.445e-06,-0.0090625
-1.444e-06,-0.0071875
-1.443e-06,-0.0105469
-1.442e-06,-0.01
-1.441e-06,-0.0138281
-1.440e-06,-0.010625
-1.439e-06,-0.0110156
-1.438e-06,-0.0084375
-1.437e-06,-0.0111719
-1.436e-06,-0.0078125
-1.435e-06,-0.0116406
-1.434e-06,-0.00921875
-1.433e-06,-0.0107031
-1.432e-06,-0.00929687
-1.431e-06,-0.00898438
-1.430e-06,-0.0109375
-1.429e-06,-0.00875
-1.428e-06,-0.00765625
-1.427e-06,-0.0140625
-1.426e-06,-0.00578125
-1.425e-06,-0.00898438
-1.424e-06,-0.00710937
-1.423e-06,-0.0123438
-1.422e-06,-0.0075
-1.421e-06,-0.00976562
-1.420e-06,-0.00695313
-1.419e-06,-0.009375
-1.418e-06,-0.00929687
-1.417e-06,-0.0125
-1.416e-06,-0.01125
-1.415e-06,-0.0130469
-1.414e-06,-0.00960937
-1.413e-06,-0.0108594
-1.412e-06,-0.0078125
-1.411e-06,-0.0107812
-1.410e-06,-0.011875
-1.409e-06,-0.0103906
-1.408e-06,-0.004375
-1.407e-06,-0.0101563
-1.406e-06,-0.0111719
-1.405e-06,-0.0132031
-1.404e-06,-0.00679688
-1.403e-06,-0.0114063
-1.402e-06,-0.0108594
-1.401e-06,-0.0107812
-1.400e-06,-0.0109375
-1.399e-06,-0.00695313
-1.398e-06,-0.009375
-1.397e-06,-0.0134375
-1.396e-06,-0.01
-1.395e-06,-0.0114844
-1.394e-06,-0.00875
-1.393e-06,-0.0132812
-1.392e-06,-0.00398437
-1.391e-06,-0.0114844
-1.390e-06,-0.0101563
-1.389e-06,-0.00679688
-1.388e-06,-0.00820313
-1.387e-06,-0.0117969
-1.386e-06,-0.010625
-1.385e-06,-0.00789062
-1.384e-06,-0.00742187
-1.383e-06,-0.00960937
-1.382e-06,-0.0096875
-1.381e-06,-0.01125
-1.380e-06,-0.00867188
-1.379e-06,-0.00945313
-1.378e-06,-0.00960937
-1.377e-06,-0.0154687
-1.376e-06,-0.00898438
-1.375e-06,-0.00625
-1.374e-06,-0.00976562
-1.373e-06,-0.0103906
-1.372e-06,-0.00632813
-1.371e-06,-0.00765625
-1.370e-06,-0.00945313
-1.369e-06,-0.0153906
-1.368e-06,-0.00820313
-1.367e-06,-0.00820313
-1.366e-06,-0.0084375
-1.365e-06,-0.0119531
-1.364e-06,-0.00726563
-1.363e-06,-0.0122656
-1.362e-06,-0.0109375
-1.361e-06,-0.00460938
-1.360e-06,-0.00851563
-1.359e-06,-0.0114063
-1.358e-06,-0.00679688
-1.357e-06,-0.0102344
-1.356e-06,-0.0126563
-1.355e-06,-0.00765625
-1.354e-06,-0.00890625
-1.353e-06,-0.0117969
-1.352e-06,-0.0101563
-1.351e-06,-0.0101563
-1.350e-06,-0.00992188
-1.349e-06,-0.0117188
-1.348e-06,-0.00367187
-1.347e-06,-0.013125
-1.346e-06,-0.009375
-1.345e-06,-0.0116406
-1.344e-06,-0.00796875
-1.343e-06,-0.0125
-1.342e-06,-0.0096875
-1.341e-06,-0.00914063
-1.340e-06,-0.00539062
-1.339e-06,-0.0134375
-1.338e-06,-0.00742187
-1.337e-06,-0.0146875
-1.336e-06,-0.0100781
-1.335e-06,-0.00914063
-1.334e-06,-0.00875
-1.333e-06,-0.0110156
-1.332e-06,-0.0113281
-1.331e-06,-0.00429688
-1.330e-06,-0.00992188
-1.329e-06,-0.0090625
-1.328e-06,-0.0124219
-1.327e-06,-0.0121875
-1.326e-06,-0.00703125
-1.325e-06,-0.0107031
-1.324e-06,-0.0107031
-1.323e-06,-0.01125
-1.322e-06,-0.00914063
-1.321e-06,-0.0117188
-1.320e-06,-0.00804688
-1.319e-06,-0.0114063
-1.318e-06,-0.0107812
-1.317e-06,-0.0126563
-1.316e-06,-0.00828125
-1.315e-06,-0.0119531
-1.314e-06,-0.00882812
-1.313e-06,-0.0119531
-1.312e-06,-0.00601563
-1.311e-06,-0.00875
-1.310e-06,-0.0126563
-1.309e-06,-0.0090625
-1.308e-06,-0.0122656
-1.307e-06,-0.0119531
-1.306e-06,-0.00929687
-1.305e-06,-0.01125
-1.304e-06,-0.008125
-1.303e-06,-0.00898438
-1.302e-06,-0.0114063
-1.301e-06,-0.0109375
-1.300e-06,-0.00992188
-1.299e-06,-0.0117969
-1.298e-06,-0.0071875
-1.297e-06,-0.0114063
-1.296e-06,-0.0111719
-1.295e-06,-0.0158594
-1.294e-06,-0.0132812
-1.293e-06,-0.0121875
-1.292e-06,-0.0139844
-1.291e-06,-0.0105469
-1.290e-06,-0.00859375
-1.289e-06,-0.0107812
-1.288e-06,-0.008125
-1.287e-06,-0.013125
-1.286e-06,-0.0132812
-1.285e-06,-0.0125
-1.284e-06,-0.0114844
-1.283e-06,-0.0125781
-1.282e-06,-0.00703125
-1.281e-06,-0.010625
-1.280e-06,-0.005625
-1.279e-06,-0.0135156
-1.278e-06,-0.00453125
-1.277e-06,-0.0090625
-1.276e-06,-0.0135938
-1.275e-06,-0.0111719
-1.274e-06,-0.005
-1.273e-06,-0.0116406
-1.272e-06,-0.00578125
-1.271e-06,-0.013125
-1.270e-06,-0.005
-1.269e-06,-0.0136719
-1.268e-06,-0.0103906
-1.267e-06,-0.0123438
-1.266e-06,-0.00898438
-1.265e-06,-0.01
-1.264e-06,-0.0123438
-1.263e-06,-0.0129687
-1.262e-06,-0.00570312
-1.261e-06,-0.0104688
-1.260e-06,-0.0142969
-1.259e-06,-0.015625
-1.258e-06,-0.00507813
-1.257e-06,-0.0108594
-1.256e-06,-0.00953125
-1.255e-06,-0.01125
-1.254e-06,-0.00984375
-1.253e-06,-0.0130469
-1.252e-06,-0.0105469
