Grafici/Regressione/backup_files/tek0010CH1.csv

Model,MDO32
Firmware Version,1.6.0

Waveform Type,ANALOG
Point Format,Y
Horizontal Units,s
Horizontal Scale,4e-06
Horizontal Delay,8.36e-06
Sample Interval,4e-09
Record Length,10000
Gating,0.0% to 100.0%
Probe Attenuation,1
Vertical Units,V
Vertical Offset,0
Vertical Scale,0.5
Vertical Position,-1.7
,
,
,
Label,
TIME,CH1
-1.1640e-05,-0.025
-1.1636e-05,-0.0188281
-1.1632e-05,-0.020625
-1.1628e-05,-0.018125
-1.1624e-05,-0.0228125
-1.1620e-05,-0.0214844
-1.1616e-05,-0.0214844
-1.1612e-05,-0.0226563
-1.1608e-05,-0.0233594
-1.1604e-05,-0.0202344
-1.1600e-05,-0.0240625
-1.1596e-05,-0.0240625
-1.1592e-05,-0.021875
-1.1588e-05,-0.0189844
-1.1584e-05,-0.0245313
-1.1580e-05,-0.02125
-1.1576e-05,-0.0245313
-1.1572e-05,-0.0179688
-1.1568e-05,-0.0239844
-1.1564e-05,-0.016875
-1.1560e-05,-0.0204688
-1.1556e-05,-0.0191406
-1.1552e-05,-0.0196875
-1.1548e-05,-0.0223437
-1.1544e-05,-0.0238281
-1.1540e-05,-0.0222656
-1.1536e-05,-0.0197656
-1.1532e-05,-0.0219531
-1.1528e-05,-0.021875
-1.1524e-05,-0.0259375
-1.1520e-05,-0.0215625
-1.1516e-05,-0.0200781
-1.1512e-05,-0.0239063
-1.1508e-05,-0.0217969
-1.1504e-05,-0.0221094
-1.1500e-05,-0.0251562
-1.1496e-05,-0.0221094
-1.1492e-05,-0.0242969
-1.1488e-05,-0.02375
-1.1484e-05,-0.0214844
-1.1480e-05,-0.0183594
-1.1476e-05,-0.02
-1.1472e-05,-0.023125
-1.1468e-05,-0.0217969
-1.1464e-05,-0.0219531
-1.1460e-05,-0.0215625
-1.1456e-05,-0.0244531
-1.1452e-05,-0.0191406
-1.1448e-05,-0.02375
-1.1444e-05,-0.0197656
-1.1440e-05,-0.0222656
-1.1436e-05,-0.0210938
-1.1432e-05,-0.023125
-1.1428e-05,-0.0229688
-1.1424e-05,-0.0242969
-1.1420e-05,-0.02
-1.1416e-05,-0.02125
-1.1412e-05,-0.0229688
-1.1408e-05,-0.019375
-1.1404e-05,-0.02375
-1.1400e-05,-0.0222656
-1.1396e-05,-0.0213281
-1.1392e-05,-0.02625
-1.1388e-05,-0.0186719
-1.1384e-05,-0.0211719
-1.1380e-05,-0.0204688
-1.1376e-05,-0.0229688
-1.1372e-05,-0.0261719
-1.1368e-05,-0.0203906
-1.1364e-05,-0.0207031
-1.1360e-05,-0.0183594
-1.1356e-05,-0.0225
-1.1352e-05,-0.0214844
-1.1348e-05,-0.02
-1.1344e-05,-0.0184375
-1.1340e-05,-0.0190625
-1.1336e-05,-0.0217188
-1.1332e-05,-0.01875
-1.1328e-05,-0.0211719
-1.1324e-05,-0.0201562
-1.1320e-05,-0.0216406
-1.1316e-05,-0.021875
-1.1312e-05,-0.0221875
-1.1308e-05,-0.0203125
-1.1304e-05,-0.0217969
-1.1300e-05,-0.0230469
-1.1296e-05,-0.0257813
-1.1292e-05,-0.0225781
-1.1288e-05,-0.0230469
-1.1284e-05,-0.0234375
-1.1280e-05,-0.0215625
-1.1276e-05,-0.0228906
-1.1272e-05,-0.0189063
-1.1268e-05,-0.0207813
-1.1264e-05,-0.0197656
-1.1260e-05,-0.0257813
-1.1256e-05,-0.0196094
-1.1252e-05,-0.0220313
-1.1248e-05,-0.0240625
-1.1244e-05,-0.0188281
-1.1240e-05,-0.0227344
-1.1236e-05,-0.0204688
-1.1232e-05,-0.023125
-1.1228e-05,-0.0217188
-1.1224e-05,-0.0189063
-1.1220e-05,-0.0196875
-1.1216e-05,-0.0242188
-1.1212e-05,-0.0253906
-1.1208e-05,-0.0219531
-1.1204e-05,-0.0185156
-1.1200e-05,-0.0233594
-1.1196e-05,-0.0201562
-1.1192e-05,-0.0225
-1.1188e-05,-0.0175
-1.1184e-05,-0.0207031
-1.1180e-05,-0.0264844
-1.1176e-05,-0.0195312
-1.1172e-05,-0.0185156
-1.1168e-05,-0.0183594
-1.1164e-05,-0.0210938
-1.1160e-05,-0.0238281
-1.1156e-05,-0.0216406
-1.1152e-05,-0.0227344
-1.1148e-05,-0.0233594
-1.1144e-05,-0.0207813
-1.1140e-05,-0.0233594
-1.1136e-05,-0.0239844
-1.1132e-05,-0.0223437
-1.1128e-05,-0.0215625
-1.1124e-05,-0.0224219
-1.1120e-05,-0.0225
-1.1116e-05,-0.0189063
-1.1112e-05,-0.0210156
-1.1108e-05,-0.0210156
-1.1104e-05,-0.019375
-1.1100e-05,-0.02
-1.1096e-05,-0.0234375
-1.1092e-05,-0.0220313
-1.1088e-05,-0.0227344
-1.1084e-05,-0.0236719
-1.1080e-05,-0.0227344
-1.1076e-05,-0.0210938
-1.1072e-05,-0.0207031
-1.1068e-05,-0.0179688
-1.1064e-05,-0.0155469
-1.1060e-05,-0.0214063
-1.1056e-05,-0.0235156
-1.1052e-05,-0.0192188
-1.1048e-05,-0.0227344
-1.1044e-05,-0.0257031
-1.1040e-05,-0.0225781
-1.1036e-05,-0.0253906
-1.1032e-05,-0.0208594
-1.1028e-05,-0.0209375
-1.1024e-05,-0.0219531
-1.1020e-05,-0.02
-1.1016e-05,-0.0226563
-1.1012e-05,-0.0177344
-1.1008e-05,-0.0242969
-1.1004e-05,-0.0227344
-1.1000e-05,-0.025
-1.0996e-05,-0.0232031
-1.0992e-05,-0.0216406
-1.0988e-05,-0.0195312
-1.0984e-05,-0.0214063
-1.0980e-05,-0.02125
-1.0976e-05,-0.0204688
-1.0972e-05,-0.0225
-1.0968e-05,-0.0178125
-1.0964e-05,-0.0200781
-1.0960e-05,-0.0176563
-1.0956e-05,-0.0227344
-1.0952e-05,-0.0210938
-1.0948e-05,-0.0197656
-1.0944e-05,-0.0198438
-1.0940e-05,-0.0227344
-1.0936e-05,-0.0203125
-1.0932e-05,-0.0210156
-1.0928e-05,-0.0214063
-1.0924e-05,-0.019375
-1.0920e-05,-0.0220313
-1.0916e-05,-0.0236719
-1.0912e-05,-0.0196875
-1.0908e-05,-0.0258594
-1.0904e-05,-0.0214844
-1.0900e-05,-0.019375
-1.0896e-05,-0.0220313
-1.0892e-05,-0.0215625
-1.0888e-05,-0.0233594
-1.0884e-05,-0.0185156
-1.0880e-05,-0.0220313
-1.0876e-05,-0.0236719
-1.0872e-05,-0.0214844
-1.0868e-05,-0.0213281
-1.0864e-05,-0.0207031
-1.0860e-05,-0.0229688
-1.0856e-05,-0.02125
-1.0852e-05,-0.0238281
-1.0848e-05,-0.0215625
-1.0844e-05,-0.0203906
-1.0840e-05,-0.0261719
-1.0836e-05,-0.0211719
-1.0832e-05,-0.0225781
-1.0828e-05,-0.0229688
-1.0824e-05,-0.0219531
-1.0820e-05,-0.0232031
-1.0816e-05,-0.0203125
-1.0812e-05,-0.0225781
-1.0808e-05,-0.0215625
-1.0804e-05,-0.0214063
-1.0800e-05,-0.0211719
-1.0796e-05,-0.0229688
-1.0792e-05,-0.0213281
-1.0788e-05,-0.0167188
-1.0784e-05,-0.0214844
-1.0780e-05,-0.0223437
-1.0776e-05,-0.0179688
-1.0772e-05,-0.0253125
-1.0768e-05,-0.0225
-1.0764e-05,-0.0227344
-1.0760e-05,-0.0189063
-1.0756e-05,-0.0226563
-1.0752e-05,-0.021875
-1.0748e-05,-0.02375
-1.0744e-05,-0.0204688
-1.0740e-05,-0.0210938
-1.0736e-05,-0.0227344
-1.0732e-05,-0.0207813
-1.0728e-05,-0.0164063
-1.0724e-05,-0.0196875
-1.0720e-05,-0.0215625
-1.0716e-05,-0.0184375
-1.0712e-05,-0.0232031
-1.0708e-05,-0.0207813
-1.0704e-05,-0.0228125
-1.0700e-05,-0.0242188
-1.0696e-05,-0.0189063
-1.0692e-05,-0.0235938
-1.0688e-05,-0.0229688
-1.0684e-05,-0.0178125
-1.0680e-05,-0.01875
-1.0676e-05,-0.02125
-1.0672e-05,-0.0236719
-1.0668e-05,-0.0183594
-1.0664e-05,-0.0207813
-1.0660e-05,-0.0239844
-1.0656e-05,-0.0239844
-1.0652e-05,-0.0205469
-1.0648e-05,-0.0179688
-1.0644e-05,-0.0223437
-1.0640e-05,-0.0197656
-1.0636e-05,-0.0192969
-1.0632e-05,-0.021875
-1.0628e-05,-0.0199219
-1.0624e-05,-0.0180469
-1.0620e-05,-0.0224219
-1.0616e-05,-0.0199219
-1.0612e-05,-0.0223437
-1.0608e-05,-0.0196094
-1.0604e-05,-0.0214844
-1.0600e-05,-0.0177344
-1.0596e-05,-0.0177344
-1.0592e-05,-0.0239844
-1.0588e-05,-0.0205469
-1.0584e-05,-0.0223437
-1.0580e-05,-0.0211719
-1.0576e-05,-0.0222656
-1.0572e-05,-0.0251562
-1.0568e-05,-0.0236719
-1.0564e-05,-0.0186719
-1.0560e-05,-0.0246875
-1.0556e-05,-0.0209375
-1.0552e-05,-0.0223437
-1.0548e-05,-0.0228906
-1.0544e-05,-0.0226563
-1.0540e-05,-0.0246094
-1.0536e-05,-0.0182031
-1.0532e-05,-0.0195312
-1.0528e-05,-0.0208594
-1.0524e-05,-0.0201562
-1.0520e-05,-0.0186719
-1.0516e-05,-0.0226563
-1.0512e-05,-0.0182031
-1.0508e-05,-0.0208594
-1.0504e-05,-0.0205469
-1.0500e-05,-0.0202344
-1.0496e-05,-0.0177344
-1.0492e-05,-0.0242969
-1.0488e-05,-0.0178906
-1.0484e-05,-0.0216406
-1.0480e-05,-0.0236719
-1.0476e-05,-0.0210938
-1.0472e-05,-0.0222656
-1.0468e-05,-0.0215625
-1.0464e-05,-0.0208594
-1.0460e-05,-0.0183594
-1.0456e-05,-0.0207031
-1.0452e-05,-0.02
-1.0448e-05,-0.0203125
-1.0444e-05,-0.0220313
-1.0440e-05,-0.0167969
-1.0436e-05,-0.0179688
-1.0432e-05,-0.0199219
-1.0428e-05,-0.0213281
-1.0424e-05,-0.0224219
-1.0420e-05,-0.0217969
-1.0416e-05,-0.021875
-1.0412e-05,-0.0200781
-1.0408e-05,-0.0235938
-1.0404e-05,-0.0217969
-1.0400e-05,-0.0235938
-1.0396e-05,-0.0204688
-1.0392e-05,-0.0199219
-1.0388e-05,-0.0228125
-1.0384e-05,-0.0207031
-1.0380e-05,-0.0222656
-1.0376e-05,-0.02375
-1.0372e-05,-0.0235938
-1.0368e-05,-0.0260938
-1.0364e-05,-0.0225
-1.0360e-05,-0.0239063
-1.0356e-05,-0.0209375
-1.0352e-05,-0.0248438
-1.0348e-05,-0.0235156
-1.0344e-05,-0.0210938
-1.0340e-05,-0.0213281
-1.0336e-05,-0.0242969
-1.0332e-05,-0.0217188
-1.0328e-05,-0.0233594
-1.0324e-05,-0.0203906
-1.0320e-05,-0.0210938
-1.0316e-05,-0.0213281
-1.0312e-05,-0.020625
-1.0308e-05,-0.0232813
-1.0304e-05,-0.0232031
-1.0300e-05,-0.0201562
-1.0296e-05,-0.0217188
-1.0292e-05,-0.0203906
-1.0288e-05,-0.0221094
-1.0284e-05,-0.0190625
-1.0280e-05,-0.0228125
-1.0276e-05,-0.0227344
-1.0272e-05,-0.0252344
-1.0268e-05,-0.0197656
-1.0264e-05,-0.0222656
-1.0260e-05,-0.0194531
-1.0256e-05,-0.018125
-1.0252e-05,-0.0200781
-1.0248e-05,-0.0199219
-1.0244e-05,-0.0225781
-1.0240e-05,-0.019375
-1.0236e-05,-0.0217188
-1.0232e-05,-0.0164844
-1.0228e-05,-0.0203906
-1.0224e-05,-0.02375
-1.0220e-05,-0.0210156
-1.0216e-05,-0.0189844
-1.0212e-05,-0.0238281
-1.0208e-05,-0.0178125
-1.0204e-05,-0.0232031
-1.0200e-05,-0.0242188
-1.0196e-05,-0.0214063
-1.0192e-05,-0.02125
-1.0188e-05,-0.0221875
-1.0184e-05,-0.0204688
-1.0180e-05,-0.0205469
-1.0176e-05,-0.0208594
-1.0172e-05,-0.01875
-1.0168e-05,-0.0201562
-1.0164e-05,-0.024375
-1.0160e-05,-0.0192969
-1.0156e-05,-0.0217188
-1.0152e-05,-0.0204688
-1.0148e-05,-0.0246875
-1.0144e-05,-0.0199219
-1.0140e-05,-0.0216406
-1.0136e-05,-0.0203906
-1.0132e-05,-0.0196875
-1.0128e-05,-0.0232813
-1.0124e-05,-0.02125
-1.0120e-05,-0.0210938
-1.0116e-05,-0.0195312
-1.0112e-05,-0.0213281
-1.0108e-05,-0.023125
-1.0104e-05,-0.0192188
-1.0100e-05,-0.0236719
-1.0096e-05,-0.0196094
-1.0092e-05,-0.0257813
-1.0088e-05,-0.0182031
-1.0084e-05,-0.0182813
-1.0080e-05,-0.0246875
-1.0076e-05,-0.0248438
-1.0072e-05,-0.0171875
-1.0068e-05,-0.0208594
-1.0064e-05,-0.0238281
-1.0060e-05,-0.02125
-1.0056e-05,-0.0228125
-1.0052e-05,-0.0185156
-1.0048e-05,-0.020625
-1.0044e-05,-0.0210156
-1.0040e-05,-0.0167969
-1.0036e-05,-0.0225
-1.0032e-05,-0.0198438
-1.0028e-05,-0.0217188
-1.0024e-05,-0.0196094
-1.0020e-05,-0.0215625
-1.0016e-05,-0.0217188
-1.0012e-05,-0.0270313
-1.0008e-05,-0.0224219
-1.0004e-05,-0.0210938
-1.0000e-05,-0.0227344
-9.9960e-06,-0.0215625
-9.9920e-06,-0.0183594
-9.9880e-06,-0.0201562
-9.9840e-06,-0.0202344
-9.9800e-06,-0.0186719
-9.9760e-06,-0.020625
-9.9720e-06,-0.0246875
-9.9680e-06,-0.0211719
-9.9640e-06,-0.0221875
-9.9600e-06,-0.0204688
-9.9560e-06,-0.0189844
-9.9520e-06,-0.0190625
-9.9480e-06,-0.0170313
-9.9440e-06,-0.0234375
-9.9400e-06,-0.0235938
-9.9360e-06,-0.0198438
-9.9320e-06,-0.025
-9.9280e-06,-0.0184375
-9.9240e-06,-0.0210156
-9.9200e-06,-0.0189844
-9.9160e-06,-0.0227344
-9.9120e-06,-0.0211719
-9.9080e-06,-0.0210938
-9.9040e-06,-0.0195312
-9.9000e-06,-0.0190625
-9.8960e-06,-0.0203125
-9.8920e-06,-0.0224219
-9.8880e-06,-0.0216406
-9.8840e-06,-0.0197656
-9.8800e-06,-0.0226563
-9.8760e-06,-0.0207031
-9.8720e-06,-0.0210938
-9.8680e-06,-0.0204688
-9.8640e-06,-0.0221875
-9.8600e-06,-0.0221875
-9.8560e-06,-0.020625
-9.8520e-06,-0.0220313
-9.8480e-06,-0.0200781
-9.8440e-06,-0.0229688
-9.8400e-06,-0.0197656
-9.8360e-06,-0.0214844
-9.8320e-06,-0.0191406
-9.8280e-06,-0.0271875
-9.8240e-06,-0.0228125
-9.8200e-06,-0.0228906
-9.8160e-06,-0.0225781
-9.8120e-06,-0.0224219
-9.8080e-06,-0.0178906
-9.8040e-06,-0.0233594
-9.8000e-06,-0.016875
-9.7960e-06,-0.0230469
-9.7920e-06,-0.0198438
-9.7880e-06,-0.0198438
-9.7840e-06,-0.021875
-9.7800e-06,-0.0215625
-9.7760e-06,-0.0244531
-9.7720e-06,-0.0235938
-9.7680e-06,-0.020625
-9.7640e-06,-0.0204688
-9.7600e-06,-0.0205469
-9.7560e-06,-0.0204688
-9.7520e-06,-0.0224219
-9.7480e-06,-0.0210156
-9.7440e-06,-0.0215625
-9.7400e-06,-0.0236719
-9.7360e-06,-0.0189063
-9.7320e-06,-0.0196875
-9.7280e-06,-0.0196875
-9.7240e-06,-0.0204688
-9.7200e-06,-0.0184375
-9.7160e-06,-0.0210938
-9.7120e-06,-0.024375
-9.7080e-06,-0.0221875
-9.7040e-06,-0.0232813
-9.7000e-06,-0.0178125
-9.6960e-06,-0.0239844
-9.6920e-06,-0.0239063
-9.6880e-06,-0.0204688
-9.6840e-06,-0.0236719
-9.6800e-06,-0.0217969
-9.6760e-06,-0.0245313
-9.6720e-06,-0.0217969
-9.6680e-06,-0.0225
-9.6640e-06,-0.0186719
-9.6600e-06,-0.0233594
-9.6560e-06,-0.0257031
-9.6520e-06,-0.02125
-9.6480e-06,-0.0186719
-9.6440e-06,-0.0216406
-9.6400e-06,-0.0235938
-9.6360e-06,-0.023125
-9.6320e-06,-0.0205469
-9.6280e-06,-0.0215625
-9.6240e-06,-0.02375
-9.6200e-06,-0.0215625
-9.6160e-06,-0.0221094
-9.6120e-06,-0.01875
-9.6080e-06,-0.0236719
-9.6040e-06,-0.0207031
-9.6000e-06,-0.0214844
-9.5960e-06,-0.0223437
-9.5920e-06,-0.0227344
-9.5880e-06,-0.0196094
-9.5840e-06,-0.0253125
-9.5800e-06,-0.0210938
-9.5760e-06,-0.0236719
-9.5720e-06,-0.0253906
-9.5680e-06,-0.020625
-9.5640e-06,-0.0188281
-9.5600e-06,-0.019375
-9.5560e-06,-0.0169531
-9.5520e-06,-0.0222656
-9.5480e-06,-0.0205469
-9.5440e-06,-0.0232031
-9.5400e-06,-0.0203906
-9.5360e-06,-0.0176563
-9.5320e-06,-0.0228906
-9.5280e-06,-0.0221094
-9.5240e-06,-0.0202344
-9.5200e-06,-0.0239063
-9.5160e-06,-0.0214063
-9.5120e-06,-0.0226563
-9.5080e-06,-0.0207031
-9.5040e-06,-0.0192188
-9.5000e-06,-0.0223437
-9.4960e-06,-0.0223437
-9.4920e-06,-0.0197656
-9.4880e-06,-0.0219531
-9.4840e-06,-0.0227344
-9.4800e-06,-0.0189844
-9.4760e-06,-0.0214063
-9.4720e-06,-0.0224219
-9.4680e-06,-0.0238281
-9.4640e-06,-0.0172656
-9.4600e-06,-0.0198438
-9.4560e-06,-0.0225
-9.4520e-06,-0.0185156
-9.4480e-06,-0.0249219
-9.4440e-06,-0.0195312
-9.4400e-06,-0.0242969
-9.4360e-06,-0.0166406
-9.4320e-06,-0.0229688
-9.4280e-06,-0.0221875
-9.4240e-06,-0.02125
-9.4200e-06,-0.0233594
-9.4160e-06,-0.0220313
-9.4120e-06,-0.0258594
-9.4080e-06,-0.0227344
-9.4040e-06,-0.0198438
-9.4000e-06,-0.0215625
-9.3960e-06,-0.0232031
-9.3920e-06,-0.0210156
-9.3880e-06,-0.0235156
-9.3840e-06,-0.021875
-9.3800e-06,-0.0224219
-9.3760e-06,-0.0244531
-9.3720e-06,-0.0235156
-9.3680e-06,-0.0200781
-9.3640e-06,-0.0183594
-9.3600e-06,-0.02
-9.3560e-06,-0.0245313
-9.3520e-06,-0.0255469
-9.3480e-06,-0.0224219
-9.3440e-06,-0.0198438
-9.3400e-06,-0.0203125
-9.3360e-06,-0.0196875
-9.3320e-06,-0.0195312
-9.3280e-06,-0.0247656
-9.3240e-06,-0.0192188
-9.3200e-06,-0.0284375
-9.3160e-06,-0.0236719
-9.3120e-06,-0.0213281
-9.3080e-06,-0.0217188
-9.3040e-06,-0.023125
-9.3000e-06,-0.0207813
-9.2960e-06,-0.0201562
-9.2920e-06,-0.0198438
-9.2880e-06,-0.0229688
-9.2840e-06,-0.0167969
-9.2800e-06,-0.0229688
-9.2760e-06,-0.0192188
-9.2720e-06,-0.0235156
-9.2680e-06,-0.02
-9.2640e-06,-0.0180469
-9.2600e-06,-0.0232813
-9.2560e-06,-0.0241406
-9.2520e-06,-0.0196875
-9.2480e-06,-0.0235156
-9.2440e-06,-0.0214844
-9.2400e-06,-0.0214063
-9.2360e-06,-0.0195312
-9.2320e-06,-0.0250781
-9.2280e-06,-0.0285938
-9.2240e-06,-0.0232813
-9.2200e-06,-0.0208594
-9.2160e-06,-0.0203906
-9.2120e-06,-0.0244531
-9.2080e-06,-0.0205469
-9.2040e-06,-0.0205469
-9.2000e-06,-0.0233594
-9.1960e-06,-0.0219531
-9.1920e-06,-0.0225
-9.1880e-06,-0.0190625
-9.1840e-06,-0.0229688
-9.1800e-06,-0.0214844
-9.1760e-06,-0.0247656
-9.1720e-06,-0.0196875
-9.1680e-06,-0.0246875
-9.1640e-06,-0.0202344
-9.1600e-06,-0.0161719
-9.1560e-06,-0.019375
-9.1520e-06,-0.0224219
-9.1480e-06,-0.0183594
-9.1440e-06,-0.0204688
-9.1400e-06,-0.0242969
-9.1360e-06,-0.0219531
-9.1320e-06,-0.0176563
-9.1280e-06,-0.0210156
-9.1240e-06,-0.0240625
-9.1200e-06,-0.0226563
-9.1160e-06,-0.0226563
-9.1120e-06,-0.0239844
-9.1080e-06,-0.0221094
-9.1040e-06,-0.0213281
-9.1000e-06,-0.0228906
-9.0960e-06,-0.0225781
-9.0920e-06,-0.0220313
-9.0880e-06,-0.0239063
-9.0840e-06,-0.0210938
-9.0800e-06,-0.0211719
-9.0760e-06,-0.0197656
-9.0720e-06,-0.0227344
-9.0680e-06,-0.0184375
-9.0640e-06,-0.0186719
-9.0600e-06,-0.0192188
-9.0560e-06,-0.0224219
-9.0520e-06,-0.0190625
-9.0480e-06,-0.0228906
-9.0440e-06,-0.0230469
-9.0400e-06,-0.0253906
-9.0360e-06,-0.0175781
-9.0320e-06,-0.020625
-9.0280e-06,-0.0189063
-9.0240e-06,-0.0197656
-9.0200e-06,-0.0225
-9.0160e-06,-0.0195312
-9.0120e-06,-0.0211719
-9.0080e-06,-0.0217188
-9.0040e-06,-0.0197656
-9.0000e-06,-0.01875
-8.9960e-06,-0.0203125
-8.9920e-06,-0.0197656
-8.9880e-06,-0.0172656
-8.9840e-06,-0.0170313
-8.9800e-06,-0.0214063
-8.9760e-06,-0.0238281
-8.9720e-06,-0.0217188
-8.9680e-06,-0.0192188
-8.9640e-06,-0.0211719
-8.9600e-06,-0.0214063
-8.9560e-06,-0.019375
-8.9520e-06,-0.0192969
-8.9480e-06,-0.0207031
-8.9440e-06,-0.021875
-8.9400e-06,-0.0199219
-8.9360e-06,-0.0201562
-8.9320e-06,-0.02125
-8.9280e-06,-0.0235938
-8.9240e-06,-0.0242969
-8.9200e-06,-0.0190625
-8.9160e-06,-0.0221875
-8.9120e-06,-0.0189063
-8.9080e-06,-0.019375
-8.9040e-06,-0.0234375
-8.9000e-06,-0.0236719
-8.8960e-06,-0.0182813
-8.8920e-06,-0.0238281
-8.8880e-06,-0.0249219
-8.8840e-06,-0.0195312
-8.8800e-06,-0.0265625
-8.8760e-06,-0.0220313
-8.8720e-06,-0.0219531
-8.8680e-06,-0.0240625
-8.8640e-06,-0.0196875
-8.8600e-06,-0.0207031
-8.8560e-06,-0.0194531
-8.8520e-06,-0.023125
-8.8480e-06,-0.023125
-8.8440e-06,-0.0244531
-8.8400e-06,-0.023125
-8.8360e-06,-0.0241406
-8.8320e-06,-0.0180469
-8.8280e-06,-0.0214844
-8.8240e-06,-0.0197656
-8.8200e-06,-0.0201562
-8.8160e-06,-0.0225781
-8.8120e-06,-0.02125
-8.8080e-06,-0.0225781
-8.8040e-06,-0.0239063
-8.8000e-06,-0.0217969
-8.7960e-06,-0.024375
-8.7920e-06,-0.0189844
-8.7880e-06,-0.0198438
-8.7840e-06,-0.0254688
-8.7800e-06,-0.0209375
-8.7760e-06,-0.01875
-8.7720e-06,-0.0223437
-8.7680e-06,-0.0226563
-8.7640e-06,-0.0217969
-8.7600e-06,-0.01875
-8.7560e-06,-0.0195312
-8.7520e-06,-0.0204688
-8.7480e-06,-0.0219531
-8.7440e-06,-0.0235156
-8.7400e-06,-0.0203906
-8.7360e-06,-0.0232031
-8.7320e-06,-0.0221094
-8.7280e-06,-0.0219531
-8.7240e-06,-0.02125
-8.7200e-06,-0.0210156
-8.7160e-06,-0.0211719
-8.7120e-06,-0.0241406
-8.7080e-06,-0.0217969
-8.7040e-06,-0.0245313
-8.7000e-06,-0.0209375
-8.6960e-06,-0.020625
-8.6920e-06,-0.0195312
-8.6880e-06,-0.0227344
-8.6840e-06,-0.0175
-8.6800e-06,-0.0195312
-8.6760e-06,-0.0211719
-8.6720e-06,-0.0219531
-8.6680e-06,-0.0227344
-8.6640e-06,-0.0214844
-8.6600e-06,-0.0201562
-8.6560e-06,-0.0189063
-8.6520e-06,-0.0199219
-8.6480e-06,-0.025625
-8.6440e-06,-0.0236719
-8.6400e-06,-0.025625
-8.6360e-06,-0.02375
-8.6320e-06,-0.0228125
-8.6280e-06,-0.0241406
-8.6240e-06,-0.0185156
-8.6200e-06,-0.0242188
-8.6160e-06,-0.0195312
-8.6120e-06,-0.0173437
-8.6080e-06,-0.0178906
-8.6040e-06,-0.0219531
-8.6000e-06,-0.0228906
-8.5960e-06,-0.0229688
-8.5920e-06,-0.0189063
-8.5880e-06,-0.0217969
-8.5840e-06,-0.0209375
-8.5800e-06,-0.020625
-8.5760e-06,-0.0204688
-8.5720e-06,-0.0227344
-8.5680e-06,-0.0211719
-8.5640e-06,-0.0203125
-8.5600e-06,-0.02375
-8.5560e-06,-0.0225
-8.5520e-06,-0.0211719
-8.5480e-06,-0.0228125
-8.5440e-06,-0.0225781
-8.5400e-06,-0.0228906
-8.5360e-06,-0.0192188
-8.5320e-06,-0.0232031
-8.5280e-06,-0.0202344
-8.5240e-06,-0.0220313
-8.5200e-06,-0.0192188
-8.5160e-06,-0.0235938
-8.5120e-06,-0.0271875
-8.5080e-06,-0.0204688
-8.5040e-06,-0.0225
-8.5000e-06,-0.0215625
-8.4960e-06,-0.0257031
-8.4920e-06,-0.020625
-8.4880e-06,-0.0194531
-8.4840e-06,-0.015625
-8.4800e-06,-0.0217188
-8.4760e-06,-0.0236719
-8.4720e-06,-0.0202344
-8.4680e-06,-0.0189844
-8.4640e-06,-0.0204688
-8.4600e-06,-0.0203906
-8.4560e-06,-0.0230469
-8.4520e-06,-0.0182031
-8.4480e-06,-0.0208594
-8.4440e-06,-0.0270313
-8.4400e-06,-0.021875
-8.4360e-06,-0.0216406
-8.4320e-06,-0.0221094
-8.4280e-06,-0.025
-8.4240e-06,-0.0201562
-8.4200e-06,-0.0233594
-8.4160e-06,-0.0203906
-8.4120e-06,-0.0203125
-8.4080e-06,-0.024375
-8.4040e-06,-0.0253125
-8.4000e-06,-0.0233594
-8.3960e-06,-0.0194531
-8.3920e-06,-0.0196875
-8.3880e-06,-0.02375
-8.3840e-06,-0.0214063
-8.3800e-06,-0.0232031
-8.3760e-06,-0.0200781
-8.3720e-06,-0.0191406
-8.3680e-06,-0.0196094
-8.3640e-06,-0.0210938
-8.3600e-06,-0.0201562
-8.3560e-06,-0.0211719
-8.3520e-06,-0.0220313
-8.3480e-06,-0.0217188
-8.3440e-06,-0.0217188
-8.3400e-06,-0.0196094
-8.3360e-06,-0.0207813
-8.3320e-06,-0.0228125
-8.3280e-06,-0.0213281
-8.3240e-06,-0.0186719
-8.3200e-06,-0.0210938
-8.3160e-06,-0.0203125
-8.3120e-06,-0.0228906
-8.3080e-06,-0.0247656
-8.3040e-06,-0.0210156
-8.3000e-06,-0.0192188
-8.2960e-06,-0.0179688
-8.2920e-06,-0.023125
-8.2880e-06,-0.0189844
-8.2840e-06,-0.0191406
-8.2800e-06,-0.0207813
-8.2760e-06,-0.021875
-8.2720e-06,-0.0198438
-8.2680e-06,-0.0228125
-8.2640e-06,-0.0232031
-8.2600e-06,-0.0208594
-8.2560e-06,-0.0232813
-8.2520e-06,-0.0220313
-8.2480e-06,-0.021875
-8.2440e-06,-0.0223437
-8.2400e-06,-0.0204688
-8.2360e-06,-0.0227344
-8.2320e-06,-0.0203125
-8.2280e-06,-0.021875
-8.2240e-06,-0.0227344
-8.2200e-06,-0.0221875
-8.2160e-06,-0.0228906
-8.2120e-06,-0.0169531
-8.2080e-06,-0.0214063
-8.2040e-06,-0.0171875
-8.2000e-06,-0.0226563
-8.1960e-06,-0.0230469
-8.1920e-06,-0.0208594
-8.1880e-06,-0.0192188
